// Jest Snapshot v1, https://goo.gl/fbAQLP

exports[`renders correctly 1`] = `
<View
  style={
    Array [
      undefined,
      undefined,
      undefined,
      undefined,
      Object {
        "backgroundColor": "#5DBAC0",
        "borderRadius": 36,
      },
      undefined,
    ]
  }
  text="hello"
>
  <Text
    style={
      Array [
        Object {
          "color": "white",
        },
        undefined,
      ]
    }
  >
     
    hello
     
  </Text>
</View>
`;
